{
  "uri": "configuration",
  "entityTypes": [
    {
      "uri": "configuration/entityTypes/IndividualA",
      "attributes": [
        {
          "uri": "configuration/entityTypes/IndividualA/attributes/Id",
          "name": "Id",
          "label": "Id",
          "type": "String"
        },
        {
          "uri": "configuration/entityTypes/IndividualA/attributes/A1",
          "name": "A1",
          "label": "A1",
          "type": "String"
        },
        {
          "uri": "configuration/entityTypes/IndividualA/attributes/A2",
          "name": "A2",
          "label": "A2",
          "type": "String"
        },
        {
          "uri": "configuration/entityTypes/IndividualA/attributes/A3",
          "name": "A3",
          "label": "A3",
          "type": "String"
        },
        {
          "uri": "configuration/entityTypes/IndividualA/attributes/A4",
          "name": "A4",
          "label": "A4",
          "type": "String"
        }
      ],
      "matchGroups": [
        {
          "uri": "configuration/entityTypes/IndividualA/matchGroups/SuspectSameA1",
          "label": "Suspect By A1",
          "type": "suspect",
          "useOvOnly": "true",
          "rule": {
            "exact": [
              "configuration/entityTypes/IndividualA/attributes/A1"
            ],
            "matchTokenClasses": {
              "mapping": [
                {
                  "attribute": "configuration/entityTypes/IndividualA/attributes/A1",
                  "class": "com.reltio.match.token.ExactMatchToken"
                }
              ]
            },
            "comparatorClasses": {
              "mapping": [
                {
                  "attribute": "configuration/entityTypes/IndividualA/attributes/A1",
                  "class": "com.reltio.match.comparator.BasicStringComparator"
                }
              ]
            }
          }
        },
        {
          "uri": "configuration/entityTypes/IndividualA/matchGroups/SuspectSameA4",
          "label": "Suspect By A4",
          "type": "suspect",
          "useOvOnly": "true",
          "rule": {
            "fuzzy": [
              "configuration/entityTypes/IndividualA/attributes/A4"
            ],
            "matchTokenClasses": {
              "mapping": [
                {
                  "attribute": "configuration/entityTypes/IndividualA/attributes/A4",
                  "class": "com.reltio.match.token.DistinctWordsMatchToken",
                  "parameters": [
                    {
                      "parameter": "threshold",
                      "value": "90%"
                    },
                    {
                      "parameter": "pattern",
                      "value": "[a-zA-Z]+"
                    }
                  ]
                }
              ]
            },
            "comparatorClasses": {
              "mapping": [
                {
                  "attribute": "configuration/entityTypes/IndividualA/attributes/A4",
                  "class": "com.reltio.match.comparator.DistinctWordsComparator",
                  "parameters": [
                    {
                      "parameter": "threshold",
                      "value": "90%"
                    },
                    {
                      "parameter": "pattern",
                      "value": "[a-zA-Z]+"
                    }
                  ]
                }
              ]
            }
          }
        }
      ]
    },
    {
      "uri": "configuration/entityTypes/IndividualB",
      "attributes": [
        {
          "uri": "configuration/entityTypes/IndividualB/attributes/Id",
          "name": "Id",
          "label": "Id",
          "type": "String"
        },
        {
          "uri": "configuration/entityTypes/IndividualB/attributes/B1",
          "name": "B1",
          "label": "B1",
          "type": "String"
        },
        {
          "uri": "configuration/entityTypes/IndividualB/attributes/B2",
          "name": "B2",
          "label": "B2",
          "type": "String"
        },
        {
          "uri": "configuration/entityTypes/IndividualB/attributes/B3",
          "name": "B3",
          "label": "B3",
          "type": "String"
        },
        {
          "uri": "configuration/entityTypes/IndividualB/attributes/B4",
          "name": "B4",
          "label": "B4",
          "type": "String"
        }
      ],
      "matchGroups": [
        {
          "uri": "configuration/entityTypes/IndividualB/matchGroups/AutomaticSameB1",
          "label": "Automatic By B1",
          "type": "automatic",
          "useOvOnly": "true",
          "rule": {
            "exact": [
              "configuration/entityTypes/IndividualB/attributes/B1"
            ],
            "matchTokenClasses": {
              "mapping": [
                {
                  "attribute": "configuration/entityTypes/IndividualB/attributes/B1",
                  "class": "com.reltio.match.token.ExactMatchToken"
                }
              ]
            },
            "comparatorClasses": {
              "mapping": [
                {
                  "attribute": "configuration/entityTypes/IndividualB/attributes/B1",
                  "class": "com.reltio.match.comparator.BasicStringComparator"
                }
              ]
            }
          }
        },
        {
          "uri": "configuration/entityTypes/IndividualB/matchGroups/AutomaticSameB4",
          "label": "Automatic By B4",
          "type": "automatic",
          "useOvOnly": "true",
          "rule": {
            "fuzzy": [
              "configuration/entityTypes/IndividualB/attributes/B4"
            ],
            "matchTokenClasses": {
              "mapping": [
                {
                  "attribute": "configuration/entityTypes/IndividualB/attributes/B4",
                  "class": "com.reltio.match.token.DistinctWordsMatchToken",
                  "parameters": [
                    {
                      "parameter": "threshold",
                      "value": "90%"
                    },
                    {
                      "parameter": "pattern",
                      "value": "[a-zA-Z]+"
                    }
                  ]
                }
              ]
            },
            "comparatorClasses": {
              "mapping": [
                {
                  "attribute": "configuration/entityTypes/IndividualB/attributes/B4",
                  "class": "com.reltio.match.comparator.DistinctWordsComparator",
                  "parameters": [
                    {
                      "parameter": "threshold",
                      "value": "90%"
                    },
                    {
                      "parameter": "pattern",
                      "value": "[a-zA-Z]+"
                    }
                  ]
                }
              ]
            }
          }
        }
      ]
    }
  ],
  "sources": [
    {
      "uri": "configuration/sources/Test",
      "abbreviation": "Test",
      "label": "Test"
    }
  ]
}
